0.1988071570576535, 19.82516556291391
0.675944333996024, 20.079470198675498
1.2326043737574555, 20.381456953642385
1.9880715705765404, 20.635761589403973
2.9423459244532797, 20.842384105960264
3.6978131212723655, 21.064900662251656
4.4135188866799195, 21.335099337748346
5.288270377733599, 21.66887417218543
6.441351888667991, 21.796026490066225
7.435387673956263, 21.954966887417218
8.82703777335984, 22.241059602649006
9.741550695825048, 22.336423841059602
10.73558648111332, 22.606622516556293
11.84890656063618, 22.813245033112583
12.962226640159045, 23.14701986754967
14.23459244532803, 23.87814569536424
15.626242544731607, 24.847682119205295
17.216699801192842, 25.801324503311257
18.926441351888666, 27.565562913907282
20.79522862823061, 28.264900662251655
22.862823061630216, 29.5364238410596
25.248508946322065, 30.410596026490065
27.753479125248507, 29.886092715231786
30.576540755467196, 30.903311258278144
