0.4942339373970377, 18.38993710691824
0.8896210873146657, 18.74932614555256
0.790774299835256, 19.0188679245283
1.6803953871499182, 19.468104222821204
2.3723228995057646, 19.737646001796946
2.6688632619439865, 20.0251572327044
2.8665568369028023, 20.276729559748425
3.9538714991762802, 20.60017969451932
5.140032948929161, 20.923629829290206
5.930807248764413, 21.157232704402517
7.611202635914335, 21.40880503144654
9.093904448105437, 21.516621743036836
10.675453047775942, 21.732255166217428
12.158154859967052, 21.82210242587601
12.948929159802308, 22.00179694519317
14.53047775947282, 22.253369272237197
16.309719934102137, 22.451033243486073
17.594728171334435, 22.630727762803232
18.780889621087315, 22.900269541778975
19.868204283360793, 23.33153638814016
21.252059308072486, 23.6010781671159
22.24052718286656, 23.852650494159928
23.822075782537066, 24.19407008086253
25.20593080724876, 24.499550763701706
26.490939044481056, 25.236298292902067
27.77594728171334, 25.68553459119497
29.25864909390445, 26.36837376460018
30.64250411861615, 26.8355795148248
32.12520593080724, 27.248876909254268
33.60790774299835, 27.37466307277628
35.38714991762768, 27.572327044025158
37.166392092257, 27.805929919137466
38.94563426688633, 28.488769092542675
40.823723228995064, 28.866127583108714
42.99835255354202, 28.973944294699013
45.27182866556838, 28.90206648697215
47.34761120263592, 29.045822102425877
49.81878088962108, 29.243486073674756
52.28995057660626, 29.53099730458221
54.85996705107084, 29.746630727762803
57.627677100494225, 29.836477987421382
60.29654036243822, 29.67475292003594
63.45963756177923, 29.854447439353102
66.72158154859967, 29.872416891284818
69.88467874794068, 29.98023360287511
73.44316309719935, 30.213836477987424
77.1004942339374, 30.555256064690028
81.05436573311367, 30.842767295597486
85.10708401976936, 31.202156334231805
89.25864909390444, 31.381850853548965
93.90444810543657, 31.63342318059299
98.45140032948929, 31.9748427672956
103.49258649093903, 31.938903863432166
108.53377265238879, 32.531895777178796
113.77265238879735, 32.54986522911051
119.9011532125206, 33.663971248876905
